﻿<?xml version="1.0" encoding="utf-8"?>
<!-- Generator: Adobe Illustrator 24.3.0, SVG Export Plug-In . SVG Version: 6.00 Build 0)  -->
<svg version="1.1" id="Layer_1" xmlns="http://www.w3.org/2000/svg" xmlns:xlink="http://www.w3.org/1999/xlink" x="0px" y="0px"
	 width="56.69" height="56.69" viewBox="0 0 56.69 56.69" style="enable-background:new 0 0 56.69 56.69;" xml:space="preserve">
<style type="text/css">
	.st0{fill:none;}
	.st1{fill:none;stroke:#FF0001;stroke-width:2;}
	.st2{fill:none;stroke:#FF0001;stroke-width:2;stroke-linecap:round;}
</style>
<rect id="transparent_background" class="st0" width="56.69" height="56.69"/>
<g>
	<path class="st1" d="M9.45,10.53c0,0-2.8,0-2.8,2.95v24.17c0,0,0,2.96,2.8,2.96h37.79c0,0,2.8,0,2.8-2.96V13.48
		c0,0,0-2.95-2.8-2.95H9.45z"/>
	<line class="st2" x1="20.74" y1="46.17" x2="35.96" y2="46.17"/>
</g>
<g>
</g>
<g>
</g>
<g>
</g>
<g>
</g>
<g>
</g>
<g>
</g>
</svg>
