﻿<?xml version="1.0" encoding="utf-8"?>
<!-- Generator: Adobe Illustrator 24.3.0, SVG Export Plug-In . SVG Version: 6.00 Build 0)  -->
<svg version="1.1" id="Layer_1" xmlns="http://www.w3.org/2000/svg" xmlns:xlink="http://www.w3.org/1999/xlink" x="0px" y="0px"
	 width="56.69" height="56.69" viewBox="0 0 56.69 56.69" style="enable-background:new 0 0 56.69 56.69;" xml:space="preserve">
<style type="text/css">
	.st0{fill:none;}
	.st1{fill:none;stroke:#FF0001;stroke-width:2;stroke-linecap:round;stroke-linejoin:round;}
</style>
<rect id="transparent_background" class="st0" width="56.69" height="56.69"/>
<path class="st1" d="M21.83,21.83l13.02,13.02 M21.83,34.86l13.02-13.02 M6.85,31.16C5.06,16.99,16.99,5.06,31.16,6.85
	c9.66,1.22,17.47,9.02,18.68,18.68c1.79,14.18-10.14,26.1-24.32,24.32C15.87,48.63,8.06,40.83,6.85,31.16z"/>
<g>
</g>
<g>
</g>
<g>
</g>
<g>
</g>
<g>
</g>
<g>
</g>
</svg>
